^C:\USERS\ADMIN\DESKTOP\MAZEQUAL\MAZEQUAL\PCH.CPP
C:\USERS\ADMIN\DESKTOP\MAZEQUAL\MAZEQUAL\X64\DEBUG\MAZEQUAL.PCH
C:\USERS\ADMIN\DESKTOP\MAZEQUAL\MAZEQUAL\X64\DEBUG\VC141.PDB
C:\USERS\ADMIN\DESKTOP\MAZEQUAL\MAZEQUAL\X64\DEBUG\VC141.IDB
C:\USERS\ADMIN\DESKTOP\MAZEQUAL\MAZEQUAL\X64\DEBUG\PCH.OBJ
