^C:\USERS\ADMIN\DESKTOP\FFD\MAZEQUAL\DEBUG\AFFICHEUR.OBJ|C:\USERS\ADMIN\DESKTOP\FFD\MAZEQUAL\DEBUG\MAZEQUAL.OBJ|C:\USERS\ADMIN\DESKTOP\FFD\MAZEQUAL\DEBUG\PCH.OBJ|C:\USERS\ADMIN\DESKTOP\FFD\MAZEQUAL\DEBUG\ROBOT.OBJ|C:\USERS\ADMIN\DESKTOP\FFD\MAZEQUAL\DEBUG\TERRAIN.OBJ
/OUT:"C:\USERS\ADMIN\DESKTOP\FFD\DEBUG\MAZEQUAL.EXE" /INCREMENTAL /NOLOGO LIB\GLUT32.LIB KERNEL32.LIB USER32.LIB GDI32.LIB WINSPOOL.LIB COMDLG32.LIB ADVAPI32.LIB SHELL32.LIB OLE32.LIB OLEAUT32.LIB UUID.LIB ODBC32.LIB ODBCCP32.LIB /MANIFEST /MANIFESTUAC:"level='asInvoker' uiAccess='false'" /manifest:embed /DEBUG:FASTLINK /PDB:"C:\USERS\ADMIN\DESKTOP\FFD\DEBUG\MAZEQUAL.PDB" /SUBSYSTEM:CONSOLE /TLBID:1 /DYNAMICBASE /NXCOMPAT /IMPLIB:"C:\USERS\ADMIN\DESKTOP\FFD\DEBUG\MAZEQUAL.LIB" /MACHINE:X86 DEBUG\AFFICHEUR.OBJDEBUG\MAZEQUAL.OBJDEBUG\PCH.OBJDEBUG\ROBOT.OBJDEBUG\TERRAIN.OBJ
^C:\USERS\OKAPI\DOCUMENTS\PROJET AVANT FINAL\PROJET AVANT FINAL\MAZEQUAL\DEBUG\AFFICHEUR.OBJ|C:\USERS\OKAPI\DOCUMENTS\PROJET AVANT FINAL\PROJET AVANT FINAL\MAZEQUAL\DEBUG\ALGORITHME.OBJ|C:\USERS\OKAPI\DOCUMENTS\PROJET AVANT FINAL\PROJET AVANT FINAL\MAZEQUAL\DEBUG\MAZEQUAL.OBJ|C:\USERS\OKAPI\DOCUMENTS\PROJET AVANT FINAL\PROJET AVANT FINAL\MAZEQUAL\DEBUG\PCH.OBJ|C:\USERS\OKAPI\DOCUMENTS\PROJET AVANT FINAL\PROJET AVANT FINAL\MAZEQUAL\DEBUG\ROBOT.OBJ|C:\USERS\OKAPI\DOCUMENTS\PROJET AVANT FINAL\PROJET AVANT FINAL\MAZEQUAL\DEBUG\TERRAIN.OBJ
/OUT:"C:\USERS\OKAPI\DOCUMENTS\PROJET AVANT FINAL\PROJET AVANT FINAL\DEBUG\MAZEQUAL.EXE" /INCREMENTAL /NOLOGO LIB\GLUT32.LIB KERNEL32.LIB USER32.LIB GDI32.LIB WINSPOOL.LIB COMDLG32.LIB ADVAPI32.LIB SHELL32.LIB OLE32.LIB OLEAUT32.LIB UUID.LIB ODBC32.LIB ODBCCP32.LIB /MANIFEST /MANIFESTUAC:"level='asInvoker' uiAccess='false'" /manifest:embed /DEBUG:FASTLINK /PDB:"C:\USERS\OKAPI\DOCUMENTS\PROJET AVANT FINAL\PROJET AVANT FINAL\DEBUG\MAZEQUAL.PDB" /SUBSYSTEM:CONSOLE /TLBID:1 /DYNAMICBASE /NXCOMPAT /IMPLIB:"C:\USERS\OKAPI\DOCUMENTS\PROJET AVANT FINAL\PROJET AVANT FINAL\DEBUG\MAZEQUAL.LIB" /MACHINE:X86 DEBUG\AFFICHEUR.OBJDEBUG\ALGORITHME.OBJDEBUG\MAZEQUAL.OBJDEBUG\PCH.OBJDEBUG\ROBOT.OBJDEBUG\TERRAIN.OBJ
